{
  "intents": [
    {
     "intent": "NestTempQueryIntent",
     "slots": [
        {
          "name": "THERMNAME",
          "type": "LIST_OF_LOCATIONS"
        }]
    },
     {
     "intent": "NestAwayIntent",
     "slots": [
        {
          "name": "THERMNAME",
          "type": "LIST_OF_LOCATIONS"
        },
        {
         "name":"AWAYSTATE",
         "type":"LIST_OF_AWAY_STATES"
         } 
        ]
    },
    {
  	"intent": "NestIntent",
      "slots": [
        {
          "name": "LOWTEMP",
          "type": "AMAZON.NUMBER"
        },
        {
          "name": "HIGHTEMP",
          "type": "AMAZON.NUMBER"
        },
        {
          "name": "RANGEEND",
          "type": "LIST_OF_RANGE_ENDS"
        },
    		{
    		"name":"THERMNAME",
    		"type":"LIST_OF_LOCATIONS"
    		}
    		]
    },
    {
    	"intent": "NestModeIntent",
    	"slots": [
    		{
    			"name":"MODE",
    			"type":"LIST_OF_MODE_TYPES"
    		},
    		{
    		"name":"THERMNAME",
    		"type":"LIST_OF_LOCATIONS"
    		}
    	]
    },
    {
      "intent": "NestFanIntentOn",
     "slots": [
        {
          "name": "THERMNAME",
          "type": "LIST_OF_LOCATIONS"
        }]
    },
    {
      "intent": "NestFanIntentOff",
     "slots": [
        {
          "name": "THERMNAME",
          "type": "LIST_OF_LOCATIONS"
        }]
    },
    {
      "intent": "NestQuickIntentUp"
    },
    {
      "intent": "NestQuickIntentDown"
    },
    {
    	"intent":"NestSingleIntent",
    	"slots": [
    		{
    		"name":"TEMPVAL",
    		"type": "AMAZON.NUMBER"
    		},
          	{
              "name":"THERMNAME",
              "type":"LIST_OF_LOCATIONS"
          	}
    	]
    },
    {
    	"intent":"NestSpecIntent",
    	"slots": [
    		{
    		"name":"DEGREES",
    		"type": "AMAZON.NUMBER"
    		},
    		{
    		"name":"DIRECTION",
    		"type":"LIST_OF_DIRECTIONS"
    		},
    		{
    		"name":"THERMNAME",
    		"type":"LIST_OF_LOCATIONS"
    		}
    	]
    },
       {
    	"intent":"NestQuickFilterIntent",
    	"slots": [
    		{
    		"name":"DIRECTION",
    		"type":"LIST_OF_DIRECTIONS"
    		},
    		{
    		"name":"THERMNAME",
    		"type":"LIST_OF_LOCATIONS"
    		}
    	]
    },
    {
      "intent": "AMAZON.HelpIntent"
    },
 	{
      "intent": "AMAZON.CancelIntent"
    },
    {
      "intent": "GreetingIntent"
    }
  ]
}
